{
  "logo": {
    "src": "assets/images/logo.png",
    "url": "/"
  },
  "navData": [
    {
      "navTitle": "managements",
      "navItems": [
        {
          "icon": "grid",
          "title": "overview",
          "url": "/"
        },
        {
          "icon": "bar-chart-2",
          "title": "statistics",
          "url": "/statistics"
        },
        {
          "icon": "thermometer",
          "title": "patients",
          "url": "/patients"
        },
        {
          "icon": "clipboard",
          "title": "policlinic",
          "url": "/policlinic"
        },
        {
          "icon": "users",
          "title": "doctors",
          "url": "/doctors"
        },
        {
          "icon": "package",
          "title": "medicines",
          "url": "/medicines"
        }
      ]
    },
    {
      "navTitle": "support",
      "navItems": [
        {
          "icon": "mail",
          "title": "messages",
          "url": "/messages"
        },
        {
          "icon": "settings",
          "title": "settings",
          "url": "/settings"
        }
      ]
    }
  ]
}
